{
  "MapList": [
    {
      "Number": 0,
      "Name": "Start_Plan2TeamOffice",
      "Body": "Gaem_Data/MapAndNpc_Data/Plan2TeamOfficeMap_Start.json",
      "Limited": [
      ]
    },
    {
      "Name": "Nomal_Plan2TeamOffice",
      "Body": "Gaem_Data/MapAndNpc_Data/Plan2TeamOfficeMap_Start.json",
      "Number": 0,
      "Limited": [
        {
          "Ago_Quest": [
            {
              "QuestFile": "",
              "Npc": 0,
              "Quest": 0
            }
          ],
          "Item": [
            1
          ],
          "Rank": 7
        }
      ]
    }
  ]
}
