{
  "Game_Music": [
    {
      "Name": "Test_Music_1",
      "Unique_Number": 1,
      "MusicFile": "Sound/Mp3_Music/Test_Music_1.mp3",
      "Body": "Image/MusicImage/Cube.png",
      "Kind" :  0
    }
    ,
    {
      "Name": "Test_Music_2",
      "Unique_Number": 2,
      "MusicFile": "Sound/Mp3_Music/Test_Music_3.mp3",
      "Body": "Image/MusicImage/Email.png",
      "Kind": 1
    },   {
      "Name": "Test_Music_3",
      "Unique_Number": 3,
      "MusicFile": "Sound/Mp3_Music/Test_Music_4.mp3",
      "Body": "Image/MusicImage/Cube.png",
      "Kind" :  2
    }
    ,
    {
      "Name": "Test_Music_4",
      "Unique_Number": 4,
      "MusicFile": "Sound/Mp3_Music/Test_Music_5.mp3",
      "Body": "Image/MusicImage/Email.png",
      "Kind": 1
    }
 
  ]
}
